Lab 8, Part 2: Time Series Exploration with tsibble
…
Use filter_index() to filter by date-times!

Can still use same type of functions weve been using with regular tibbles and dataframes.

We can use filter_index() specifically to help us filter data by time spans. See ?filter_index() for more information.

Example 1: Filter from June 2000 through October 2001

toolik_ts %>% 
  filter_index("2000-06" ~ "2001-10")

## # A tsibble: 518 x 5 [1D]
##    date       station              mean_airtemp daily_precip mean_windspeed
##    <date>     <chr>                       <dbl>        <dbl>          <dbl>
##  1 2000-06-01 Toolik Field Station          2.5          0              3.8
##  2 2000-06-02 Toolik Field Station         -3            6.6            2.3
##  3 2000-06-03 Toolik Field Station         -1.3          0.8            2.1
##  4 2000-06-04 Toolik Field Station          4.8          1.3            2  
##  5 2000-06-05 Toolik Field Station          8.5          0              3.2
##  6 2000-06-06 Toolik Field Station         12.8          0.8            4.1
##  7 2000-06-07 Toolik Field Station         12.9          0              2.8
##  8 2000-06-08 Toolik Field Station          9.5          0              3.2
##  9 2000-06-09 Toolik Field Station          9.6          1              2.7
## 10 2000-06-10 Toolik Field Station         12.3          0              3.1
## # ... with 508 more rows

Example 2: Filter from April 10, 2006 to May 15, 2006

toolik_ts %>% 
  filter_index("2006-04-10" ~ "2006-05-15")

## # A tsibble: 36 x 5 [1D]
##    date       station              mean_airtemp daily_precip mean_windspeed
##    <date>     <chr>                       <dbl>        <dbl>          <dbl>
##  1 2006-04-10 Toolik Field Station        -18.5            0             NA
##  2 2006-04-11 Toolik Field Station        -13.5            0             NA
##  3 2006-04-12 Toolik Field Station        -22.5            0             NA
##  4 2006-04-13 Toolik Field Station        -24              0             NA
##  5 2006-04-14 Toolik Field Station        -24.6            0             NA
##  6 2006-04-15 Toolik Field Station        -22.2            0             NA
##  7 2006-04-16 Toolik Field Station        -19.6            0             NA
##  8 2006-04-17 Toolik Field Station        -25              0             NA
##  9 2006-04-18 Toolik Field Station        -21.9            0             NA
## 10 2006-04-19 Toolik Field Station        -26.2            0             NA
## # ... with 26 more rows

Example 3: Filter from December 20, 2017 to the end of the dataset

toolik_ts %>% 
  filter_index("2017-12-20" ~ .)

## # A tsibble: 377 x 5 [1D]
##    date       station              mean_airtemp daily_precip mean_windspeed
##    <date>     <chr>                       <dbl>        <dbl>          <dbl>
##  1 2017-12-20 Toolik Field Station         -6.5          0              6.8
##  2 2017-12-21 Toolik Field Station         -3.4          0              7.7
##  3 2017-12-22 Toolik Field Station         -1.7          0              6.3
##  4 2017-12-23 Toolik Field Station         -1.4          0              6.6
##  5 2017-12-24 Toolik Field Station         -3.9          0              4.4
##  6 2017-12-25 Toolik Field Station         -7.4          0              2.7
##  7 2017-12-26 Toolik Field Station        -12.9          0.2            1.9
##  8 2017-12-27 Toolik Field Station        -12.5          0.8            1.3
##  9 2017-12-28 Toolik Field Station        -17.1          0.3            0.3
## 10 2017-12-29 Toolik Field Station        -22.6          0.1            0.9
## # ... with 367 more rows
…
